[
    {
      "id": 1,
      "prenom": "Micheline",
      "nom": "Doe",
      "photo": "./1.jpg"
    },
    {
      "id": 2,
      "prenom": "Jane",
      "nom": "Doe",
      "photo": "./2.jpg"
    },
    {
      "id": 3,
      "prenom": "Jeannette",
      "nom": "Dupont",
      "photo": "./3.jpg"
    },
    {
      "id": 4,
      "prenom": "Jeanne",
      "nom": "Dupont",
      "photo": "./4.jpg"
    },
    {
      "id": 5,
      "prenom": "Titouette",
      "nom": "Dujardin",
      "photo": "./5.jpg"
    },
    {
      "id": 6,
      "prenom": "Titouant",
      "nom": "Dujardin",
      "photo": "./6.jpg"
    },
    {
      "id": 7,
      "prenom": "Martine",
      "nom": "Durand",
      "photo": "./7.jpg"
    },
    {
      "id": 8,
      "prenom": "Jeanne",
      "nom": "Durand",
      "photo": "./8.jpg"
    },
    {
      "id": 9,
      "prenom": "Jean",
      "nom": "Dutronc",
      "photo": "./9.jpg"
    },
    {
      "id": 10,
      "prenom": "Jeanne",
      "nom": "Dutronc",
      "photo": "./10.jpg"
    }
]